Exploring recipes with LLMs, Ollama and R – Thomas Sandmann’s blog
…
The recipe corpus

Kaggle hosts the Food Ingredients and Recipes Dataset with Images dataset, which was originally scraped from the Epicurious Website. The original dataset includes images for each recipe as well, but Joseph Martinez has generously shared a CSV file with just the text information in this github repository.

Let’s read the full dataset into our R session:

library(readr)
recipes <- readr::read_csv(
  paste0("https://raw.githubusercontent.com/josephrmartinez/recipe-dataset/",
         "main/13k-recipes.csv"),
  col_types = "_c_ccc")
recipes

# A tibble: 13,501 × 4
   Title                             Instructions Image_Name Cleaned_Ingredients
   <chr>                             <chr>        <chr>      <chr>              
 1 Miso-Butter Roast Chicken With A… "Pat chicke… miso-butt… "['1 (3½–4-lb.) wh…
 2 Crispy Salt and Pepper Potatoes   "Preheat ov… crispy-sa… "['2 large egg whi…
 3 Thanksgiving Mac and Cheese       "Place a ra… thanksgiv… "['1 cup evaporate…
 4 Italian Sausage and Bread Stuffi… "Preheat ov… italian-s… "['1 (¾- to 1-poun…
 5 Newton's Law                      "Stir toget… newtons-l… "['1 teaspoon dark…
 6 Warm Comfort                      "Place 2 ch… warm-comf… "['2 chamomile tea…
 7 Apples and Oranges                "Add 3 oz. … apples-an… "['3 oz. Grand Mar…
 8 Turmeric Hot Toddy                "For the tu… turmeric-… "['¼ cup granulate…
 9 Instant Pot Lamb Haleem           "Combine da… instant-p… "['¾ cup assorted …
10 Spiced Lentil and Caramelized On… "Place an o… spiced-le… "['1 (14.5-ounce) …
# ℹ 13,491 more rows
…
