Thomas Sandmann’s blog - Adventures with parquet: Storing & querying gene expression data
…
toc()

arrow: 1.717 sec elapsed

On my system, it takes ~ 1 second to retrieve the results, and about the same amount of time is needed to retrieve the full rnai dataset:

tic()
ds %>%
  filter(study == "rnai") %>%
  collect()

# A tibble: 694,236 × 9
   feature_id      sample_id count     cpm ensembl symbol gene_type entrez study
 * <chr>           <chr>     <int>   <dbl> <chr>   <chr>  <chr>     <chr>  <chr>
 1 ENSG00000163106 S320          0  0      ENSG00… HPGDS  protein_… 27306  rnai 
 2 ENSG00000163106 S168          2  0.0318 ENSG00… HPGDS  protein_… 27306  rnai 
 3 ENSG00000163106 S255          1  0.0111 ENSG00… HPGDS  protein_… 27306  rnai 
 4 ENSG00000163106 S190          0  0      ENSG00… HPGDS  protein_… 27306  rnai 
 5 ENSG00000163110 S912       1607 26.0    ENSG00… PDLIM5 protein_… 10611  rnai 
 6 ENSG00000163110 S832       2320 29.2    ENSG00… PDLIM5 protein_… 10611  rnai 
 7 ENSG00000163110 S783       1022 22.7    ENSG00… PDLIM5 protein_… 10611  rnai 
 8 ENSG00000163110 S623       1159 28.9    ENSG00… PDLIM5 protein_… 10611  rnai 
 9 ENSG00000163110 S622       1384 20.7    ENSG00… PDLIM5 protein_… 10611  rnai 
10 ENSG00000163110 S487       1023 32.6    ENSG00… PDLIM5 protein_… 10611  rnai 
# ℹ 694,226 more rows
…
toc()

duckdb: 0.065 sec elapsed

On my system, duckdb returns results more than 10x faster than arrow’s implementation (see above).

Retrieval of the full dataset for the rnai study is also completed in less than half a second:

tic()
tbl(con, glue("read_parquet('{out_dir}/*.parquet')")) %>%
  filter(study == "rnai") %>%
  collect()

# A tibble: 694,236 × 9
   feature_id      sample_id count   cpm ensembl   symbol gene_type entrez study
   <chr>           <chr>     <int> <dbl> <chr>     <chr>  <chr>     <chr>  <chr>
 1 ENSG00000000003 S912       1942  31.4 ENSG0000… TSPAN6 protein_… 7105   rnai 
 2 ENSG00000000003 S832       2942  37.1 ENSG0000… TSPAN6 protein_… 7105   rnai 
 3 ENSG00000000003 S783        905  20.1 ENSG0000… TSPAN6 protein_… 7105   rnai 
 4 ENSG00000000003 S623        960  24.0 ENSG0000… TSPAN6 protein_… 7105   rnai 
 5 ENSG00000000003 S622       2002  29.9 ENSG0000… TSPAN6 protein_… 7105   rnai 
 6 ENSG00000000003 S487        792  25.3 ENSG0000… TSPAN6 protein_… 7105   rnai 
 7 ENSG00000000003 S458       1549  20.9 ENSG0000… TSPAN6 protein_… 7105   rnai 
 8 ENSG00000000003 S420       1021  25.3 ENSG0000… TSPAN6 protein_… 7105   rnai 
 9 ENSG00000000003 S320       1432  21.5 ENSG0000… TSPAN6 protein_… 7105   rnai 
10 ENSG00000000003 S168       1773  28.2 ENSG0000… TSPAN6 protein_… 7105   rnai 
# ℹ 694,226 more rows
…
toc()

1.472 sec elapsed

tic()
sdf %>%
  filter(study == "rnai") %>%
  collect()

# A tibble: 694,236 × 9
   feature_id      sample_id count   cpm ensembl   symbol gene_type entrez study
   <chr>           <chr>     <int> <dbl> <chr>     <chr>  <chr>     <chr>  <chr>
 1 ENSG00000000003 S912       1942  31.4 ENSG0000… TSPAN6 protein_… 7105   rnai 
 2 ENSG00000000003 S832       2942  37.1 ENSG0000… TSPAN6 protein_… 7105   rnai 
 3 ENSG00000000003 S783        905  20.1 ENSG0000… TSPAN6 protein_… 7105   rnai 
 4 ENSG00000000003 S623        960  24.0 ENSG0000… TSPAN6 protein_… 7105   rnai 
 5 ENSG00000000003 S622       2002  29.9 ENSG0000… TSPAN6 protein_… 7105   rnai 
 6 ENSG00000000003 S487        792  25.3 ENSG0000… TSPAN6 protein_… 7105   rnai 
 7 ENSG00000000003 S458       1549  20.9 ENSG0000… TSPAN6 protein_… 7105   rnai 
 8 ENSG00000000003 S420       1021  25.3 ENSG0000… TSPAN6 protein_… 7105   rnai 
 9 ENSG00000000003 S320       1432  21.5 ENSG0000… TSPAN6 protein_… 7105   rnai 
10 ENSG00000000003 S168       1773  28.2 ENSG0000… TSPAN6 protein_… 7105   rnai 
# ℹ 694,226 more rows
…
