Thomas Sandmann’s blog - SQL and noSQL approaches to creating & querying databases (using R)
…
Unnesting columns

Because the set contains more than one geneSymbol, we obtain a nested data.frame. We can unnest it e.g. with the tidyr R package

tidyr::unnest(results, cols = c(geneSymbols))

# A tibble: 798 × 2
   name                  geneSymbols
   <chr>                 <chr>      
 1 HALLMARK_ADIPOGENESIS Abca1      
 2 HALLMARK_ADIPOGENESIS Abcb8      
 3 HALLMARK_ADIPOGENESIS Acaa2      
 4 HALLMARK_ADIPOGENESIS Acadl      
 5 HALLMARK_ADIPOGENESIS Acadm      
 6 HALLMARK_ADIPOGENESIS Acads      
 7 HALLMARK_ADIPOGENESIS Acly       
 8 HALLMARK_ADIPOGENESIS Aco2       
 9 HALLMARK_ADIPOGENESIS Acox1      
10 HALLMARK_ADIPOGENESIS Adcy6      
# … with 788 more rows
…
And finally, let’s also add the entrezid column from out database to the es_element table:

es <- left_join_element(es, 
  tbl_element, by = "element", 
  copy = TRUE
)
es_element(es)

# A tibble: 1,233 × 2
   element entrezid
   <chr>   <chr>   
 1 Aars    234734  
 2 Abce1   24015   
 3 Abi1    11308   
 4 Ache    11423   
 5 Acvr2a  11480   
 6 Akt1    11651   
 7 Apbb1   11785   
 8 B2m     12010   
 9 Bcat1   12035   
10 Bcl10   12042   
# … with 1,223 more rows
…
